{
    "basename": "asr-callback_02-aec5457",
    "cmd": "lfortran --show-asr --no-color {infile} -o {outfile}",
    "infile": "tests/../integration_tests/callback_02.f90",
    "infile_hash": "880452ed794b4467313ba9a87318b17fe757a084b2a39129209153d3",
    "outfile": null,
    "outfile_hash": null,
    "stdout": "asr-callback_02-aec5457.stdout",
    "stdout_hash": "922cb2c025e6395df10d985c733bb7bb3e7e832823283e6d4715daf7",
    "stderr": null,
    "stderr_hash": null,
    "returncode": 0
}