{
    "basename": "asr-intrinsics_20-771801a",
    "cmd": "lfortran --show-asr --no-color {infile} -o {outfile}",
    "infile": "tests/../integration_tests/intrinsics_20.f90",
    "infile_hash": "3ea299463f57ee7d2281d80a1fd624c38fd727a70415dda79ee12d6b",
    "outfile": null,
    "outfile_hash": null,
    "stdout": "asr-intrinsics_20-771801a.stdout",
    "stdout_hash": "e7b03d428be8e234f113af64b6898116c37c2d821300b67c185f7d4c",
    "stderr": null,
    "stderr_hash": null,
    "returncode": 0
}