{
    "basename": "asr-expr5-f0a7df6",
    "cmd": "lfortran --show-asr --no-color {infile} -o {outfile}",
    "infile": "tests/expr5.f90",
    "infile_hash": "030f3f956944c6d24d536fd1f434f877d95bf12aac6f367d2ad1827e",
    "outfile": null,
    "outfile_hash": null,
    "stdout": "asr-expr5-f0a7df6.stdout",
    "stdout_hash": "02e331f8e9b455a45ad62aa107bf3b84e44d2f913c510acb6670601a",
    "stderr": null,
    "stderr_hash": null,
    "returncode": 0
}