{
    "basename": "asr-nested_01-290187e",
    "cmd": "lfortran --show-asr --no-color {infile} -o {outfile}",
    "infile": "tests/../integration_tests/nested_01.f90",
    "infile_hash": "4675b48954591a1e2f73ecf9b769ca335945b16b07ff6191f1445a8f",
    "outfile": null,
    "outfile_hash": null,
    "stdout": "asr-nested_01-290187e.stdout",
    "stdout_hash": "726502dca5600e069d2fdf0b3b7a8c9992b5b2c942916602504779a8",
    "stderr": null,
    "stderr_hash": null,
    "returncode": 0
}