{
    "basename": "asr-logical3-b6316c6",
    "cmd": "lfortran --show-asr --no-color {infile} -o {outfile}",
    "infile": "tests/../integration_tests/logical3.f90",
    "infile_hash": "bd67609218f5e13eb7aba50f400a20aaf3490e37b28f198226175b2a",
    "outfile": null,
    "outfile_hash": null,
    "stdout": "asr-logical3-b6316c6.stdout",
    "stdout_hash": "17a3edd38bbdaef8143533e8fd4bfbd2790a5481d7677e560fe3e89d",
    "stderr": null,
    "stderr_hash": null,
    "returncode": 0
}