{
    "basename": "asr-arrays_01-5f1c776",
    "cmd": "lfortran --show-asr --no-color {infile} -o {outfile}",
    "infile": "tests/../integration_tests/arrays_01.f90",
    "infile_hash": "f7df4142feb383f836dfa072a60673922e8873b5695f893be8329b89",
    "outfile": null,
    "outfile_hash": null,
    "stdout": "asr-arrays_01-5f1c776.stdout",
    "stdout_hash": "e7d0c6db263dfabc787dbf8f3cd496284dd7457e3b10474e0df071ca",
    "stderr": null,
    "stderr_hash": null,
    "returncode": 0
}