{
    "basename": "asr-string_04-2ebc0e6",
    "cmd": "lfortran --show-asr --no-color {infile} -o {outfile}",
    "infile": "tests/../integration_tests/string_04.f90",
    "infile_hash": "1b092d9e71bbd1bc23e03b5570e3cdb8b87541e92970a9a2cd7719f5",
    "outfile": null,
    "outfile_hash": null,
    "stdout": "asr-string_04-2ebc0e6.stdout",
    "stdout_hash": "ae652461220f1f509508c247c0d3981bc412cfdb48e25b1bcc3d3d5b",
    "stderr": null,
    "stderr_hash": null,
    "returncode": 0
}