{
    "basename": "asr-complex2-5384cb2",
    "cmd": "lfortran --show-asr --no-color {infile} -o {outfile}",
    "infile": "tests/complex2.f90",
    "infile_hash": "420a31c745b1be940871a88d76cfdc7432de5cbf6fe9f2e8bc87bf39",
    "outfile": null,
    "outfile_hash": null,
    "stdout": "asr-complex2-5384cb2.stdout",
    "stdout_hash": "7eb1479276439d39e7856c2a94370b2a03bbc2e22c190e37b02f61cd",
    "stderr": null,
    "stderr_hash": null,
    "returncode": 0
}