{
    "basename": "asr-callback_01-21b53de",
    "cmd": "lfortran --show-asr --no-color {infile} -o {outfile}",
    "infile": "tests/../integration_tests/callback_01.f90",
    "infile_hash": "d2c103564620acefc4245ff5eb5dfe84478276bead512800823259da",
    "outfile": null,
    "outfile_hash": null,
    "stdout": "asr-callback_01-21b53de.stdout",
    "stdout_hash": "ea2df01d774a8cf823a8af729027b3638d7e45af295bf3b94d8ab37c",
    "stderr": null,
    "stderr_hash": null,
    "returncode": 0
}