{
    "basename": "asr-program_03-fbe20e8",
    "cmd": "lfortran --show-asr --no-color {infile} -o {outfile}",
    "infile": "tests/../integration_tests/program_03.f90",
    "infile_hash": "66e74edaf380b88bc4d65b0f35934f6857a8e67080628b16bd0e935a",
    "outfile": null,
    "outfile_hash": null,
    "stdout": "asr-program_03-fbe20e8.stdout",
    "stdout_hash": "9aa574d06305f4c429da2ecd30bf6ecd937f9bd9d3959df9fc36807c",
    "stderr": null,
    "stderr_hash": null,
    "returncode": 0
}