{
    "basename": "asr-types_06-58f9b18",
    "cmd": "lfortran --show-asr --no-color {infile} -o {outfile}",
    "infile": "tests/../integration_tests/types_06.f90",
    "infile_hash": "821a3f29390ed022c7e72bdf2e4f9bace059d335abe1d1b729ac6d22",
    "outfile": null,
    "outfile_hash": null,
    "stdout": "asr-types_06-58f9b18.stdout",
    "stdout_hash": "7876d74eb370fc4d634518bcdad0f173948bfec7c77ab4f7ac64fad7",
    "stderr": null,
    "stderr_hash": null,
    "returncode": 0
}