{
    "basename": "asr-complex1-322879a",
    "cmd": "lfortran --show-asr --no-color {infile} -o {outfile}",
    "infile": "tests/complex1.f90",
    "infile_hash": "3243c29c947c9700891971aae8780afac25cd01387e0307063f3928a",
    "outfile": null,
    "outfile_hash": null,
    "stdout": "asr-complex1-322879a.stdout",
    "stdout_hash": "18abed5977ae0092d5bb8296d22073d8812a1121be778a01bd489ac4",
    "stderr": null,
    "stderr_hash": null,
    "returncode": 0
}