{
    "basename": "asr-intrinsics_11-13a7587",
    "cmd": "lfortran --show-asr --no-color {infile} -o {outfile}",
    "infile": "tests/../integration_tests/intrinsics_11.f90",
    "infile_hash": "22ac1dd1527a39d35236a50e3b1afe37ab40b0970f22d259a077800f",
    "outfile": null,
    "outfile_hash": null,
    "stdout": "asr-intrinsics_11-13a7587.stdout",
    "stdout_hash": "73a6bc1a43a07ac113eb85efbecb7ef09a21e0054b99403dd23776b8",
    "stderr": null,
    "stderr_hash": null,
    "returncode": 0
}