{
    "basename": "asr-global_scope8-67fff8d",
    "cmd": "lfortran --show-asr --no-color {infile} -o {outfile}",
    "infile": "tests/global_scope8.f90",
    "infile_hash": "899df30dee274279a699110fb9af2afad0b826c0abc886f9e2460627",
    "outfile": null,
    "outfile_hash": null,
    "stdout": "asr-global_scope8-67fff8d.stdout",
    "stdout_hash": "b3cdf9e5dd43b928e2cd013f3300723bcea00ff4f8fe8dca71790862",
    "stderr": null,
    "stderr_hash": null,
    "returncode": 0
}