#include <iostream>
#include <string>
#include <vector>
#include <Kokkos_Core.hpp>

template <typename T>
Kokkos::View<T*> from_std_vector(const std::vector<T> &v)
{
    Kokkos::View<T*> r("r", v.size());
    for (size_t i=0; i < v.size(); i++) {
        r(i) = v[i];
    }
    return r;
}

int a()
{
    int a;
    return a;
}

float b()
{
    float b;
    return b;
}

bool c()
{
    bool c;
    return c;
}

int d()
{
    int r;
    return r;
}

float e()
{
    float r;
    return r;
}

bool f()
{
    bool r;
    return r;
}

