{
    "basename": "cpp-arrays_04_func-ac14cef",
    "cmd": "lfortran --show-cpp {infile}",
    "infile": "tests/../integration_tests/arrays_04_func.f90",
    "infile_hash": "50eb699e803e7dace8da286ee49cdb7381ebe3141bff17ca374f1f02",
    "outfile": null,
    "outfile_hash": null,
    "stdout": "cpp-arrays_04_func-ac14cef.stdout",
    "stdout_hash": "e7d79ba517a40cdd809e346ef0e92058c19904ae70ff5f9df927662f",
    "stderr": null,
    "stderr_hash": null,
    "returncode": 0
}