#include <iostream>
#include <string>
#include <vector>
#include <Kokkos_Core.hpp>

template <typename T>
Kokkos::View<T*> from_std_vector(const std::vector<T> &v)
{
    Kokkos::View<T*> r("r", v.size());
    for (size_t i=0; i < v.size(); i++) {
        r(i) = v[i];
    }
    return r;
}

bool allocated(const Kokkos::View<const int*> &x)
{
    bool allocated;
    return allocated;
}

int lbound(const Kokkos::View<const int*> &x, int dim)
{
    int lbound;
    return lbound;
}

int max(int a, int b)
{
    int max;
    return max;
}

int maxval(const Kokkos::View<const int*> &x)
{
    int maxval;
    return maxval;
}

int min(int a, int b)
{
    int min;
    return min;
}

int minval(const Kokkos::View<const int*> &x)
{
    int minval;
    return minval;
}

float real(const Kokkos::View<const int*> &x, int kind)
{
    float real;
    return real;
}

int sum(const Kokkos::View<const int*> &x)
{
    int sum;
    return sum;
}

float tiny(const Kokkos::View<const int*> &x)
{
    float tiny;
    return tiny;
}

int ubound(const Kokkos::View<const int*> &x, int dim)
{
    int ubound;
    return ubound;
}

namespace {
float abs(float a)
{
    float r;
    std::cout << "abs" << std::endl;
    if (a > 0) {
        r = a;
    } else {
        r = -a;
    };
    return r;
}

float sum(const Kokkos::View<const float*> &a)
{
    int i;
    float r;
    std::cout << "sum" << std::endl;
    r = 0;
    for (i=1; i<=a.extent(0); i++) {
        r = r + a[i-1];
    };
    return r;
}


void main2() {
        Kokkos::View<float[3]> a("a");
        float b;
        a[1-1] = 3;
        a[2-1] = 2;
        a[3-1] = 1;
        b = sum(a);
        if (abs(b - 6) > 0.000010) {
            std::cerr << "ERROR STOP" << std::endl;
            exit(1);
        };
}

}
int main(int argc, char* argv[])
{
    Kokkos::initialize(argc, argv);
    main2();
    Kokkos::finalize();
    return 0;
}
