{
    "basename": "cpp-types_04-07a1c9c",
    "cmd": "lfortran --show-cpp {infile}",
    "infile": "tests/../integration_tests/types_04.f90",
    "infile_hash": "da21466af87608d5d323360a130e0a5542261d98fabaeebb5adc16d3",
    "outfile": null,
    "outfile_hash": null,
    "stdout": "cpp-types_04-07a1c9c.stdout",
    "stdout_hash": "fa7b6057c3991234fd578ded7b764cd16d023386c539e2872dc73255",
    "stderr": null,
    "stderr_hash": null,
    "returncode": 0
}