{
    "basename": "llvm-arrays_08_func-6b07a1c",
    "cmd": "lfortran --show-llvm {infile} -o {outfile}",
    "infile": "tests/../integration_tests/arrays_08_func.f90",
    "infile_hash": "31dc0eac87716ea184d20ac42f94636f0a25c0ee00022272c2b1327d",
    "outfile": null,
    "outfile_hash": null,
    "stdout": "llvm-arrays_08_func-6b07a1c.stdout",
    "stdout_hash": "f2ea45c4da4a18c7c39e2b29beb97698983889898554b5e38a523969",
    "stderr": null,
    "stderr_hash": null,
    "returncode": 0
}