{
    "basename": "llvm-allocate_01-2c950aa",
    "cmd": "lfortran --show-llvm {infile} -o {outfile}",
    "infile": "tests/../integration_tests/allocate_01.f90",
    "infile_hash": "1462e1531177fab8c92e816c369dbd6d72f044c6f841af8d656fc1d9",
    "outfile": null,
    "outfile_hash": null,
    "stdout": "llvm-allocate_01-2c950aa.stdout",
    "stdout_hash": "ddfcdce0e43c14ba30b95750b54c6ccd57a6552efce3a99d70adcd82",
    "stderr": null,
    "stderr_hash": null,
    "returncode": 0
}