{
    "basename": "llvm-arrays_06-60e7dea",
    "cmd": "lfortran --show-llvm {infile} -o {outfile}",
    "infile": "tests/../integration_tests/arrays_06.f90",
    "infile_hash": "a4c39183fd67961c13cfe82b7a1c45556b6d9ca3c31f9aa3e9c8350f",
    "outfile": null,
    "outfile_hash": null,
    "stdout": "llvm-arrays_06-60e7dea.stdout",
    "stdout_hash": "912d78245575b0a71768e0ce00a384c864d19bd6ce745ca8370a488b",
    "stderr": null,
    "stderr_hash": null,
    "returncode": 0
}