{
    "basename": "llvm-arrays_04_func-8d7edb9",
    "cmd": "lfortran --show-llvm {infile} -o {outfile}",
    "infile": "tests/../integration_tests/arrays_04_func.f90",
    "infile_hash": "50eb699e803e7dace8da286ee49cdb7381ebe3141bff17ca374f1f02",
    "outfile": null,
    "outfile_hash": null,
    "stdout": "llvm-arrays_04_func-8d7edb9.stdout",
    "stdout_hash": "54a2d160ad447245ac49118790dccac4448bc7300644d9b6f6df12d2",
    "stderr": null,
    "stderr_hash": null,
    "returncode": 0
}