{
    "basename": "tokens-array3-3124e8a",
    "cmd": "lfortran --show-tokens {infile} -o {outfile}",
    "infile": "tests/array3.f90",
    "infile_hash": "047ac01d7e3df52429d6889258f37213048937dae8611af6cbd9ecae",
    "outfile": null,
    "outfile_hash": null,
    "stdout": "tokens-array3-3124e8a.stdout",
    "stdout_hash": "850337689a6aff3dec0ad753b22b2ceb473efa75d4fee2587d579474",
    "stderr": null,
    "stderr_hash": null,
    "returncode": 0
}