{
    "basename": "tokens-expr7-05926a7",
    "cmd": "lfortran --show-tokens {infile} -o {outfile}",
    "infile": "tests/expr7.f90",
    "infile_hash": "9b01fedf331316b08b35441cb9f4cb6f7808edd93b29c70e1caeea03",
    "outfile": null,
    "outfile_hash": null,
    "stdout": "tokens-expr7-05926a7.stdout",
    "stdout_hash": "5e07b110d4feed247c9fb163c38f17f1ed469bcc3eb61a8302ac4826",
    "stderr": null,
    "stderr_hash": null,
    "returncode": 0
}